{
    "Какую CMS вы используете в своих проектах?":
    {
        "AtomM":0,
        "AtomX":0,
        "Joomla":0,
        "Drupal":0,
        "DLE":0,
        "Самописную":0,
        "Другую":0
    }
}